<?xml version="1.0" encoding="UTF-8" standalone="no"?>
<!-- Created with Inkscape (http://www.inkscape.org/) -->

<svg
   xmlns:dc="http://purl.org/dc/elements/1.1/"
   xmlns:cc="http://creativecommons.org/ns#"
   xmlns:rdf="http://www.w3.org/1999/02/22-rdf-syntax-ns#"
   xmlns:svg="http://www.w3.org/2000/svg"
   xmlns="http://www.w3.org/2000/svg"
   xmlns:sodipodi="http://sodipodi.sourceforge.net/DTD/sodipodi-0.dtd"
   xmlns:inkscape="http://www.inkscape.org/namespaces/inkscape"
   width="273mm"
   height="201mm"
   viewBox="0 0 967.3231 712.20448"
   id="svg2"
   version="1.1"
   inkscape:version="0.91 r13725"
   sodipodi:docname="drawing.svg">
  <defs
     id="defs4" />
  <sodipodi:namedview
     id="base"
     pagecolor="#ffffff"
     bordercolor="#666666"
     borderopacity="1.0"
     inkscape:pageopacity="0.0"
     inkscape:pageshadow="2"
     inkscape:zoom="0.35"
     inkscape:cx="370.35974"
     inkscape:cy="405.71429"
     inkscape:document-units="px"
     inkscape:current-layer="layer1"
     showgrid="false"
     width="317mm"
     inkscape:window-width="1301"
     inkscape:window-height="744"
     inkscape:window-x="65"
     inkscape:window-y="24"
     inkscape:window-maximized="1"
     inkscape:snap-text-baseline="false" />
  <metadata
     id="metadata7">
    <rdf:RDF>
      <cc:Work
         rdf:about="">
        <dc:format>image/svg+xml</dc:format>
        <dc:type
           rdf:resource="http://purl.org/dc/dcmitype/StillImage" />
        <dc:title></dc:title>
      </cc:Work>
    </rdf:RDF>
  </metadata>
  <g
     inkscape:label="Layer 1"
     inkscape:groupmode="layer"
     id="layer1"
     transform="translate(0,-340.1577)">
    <rect
       style="opacity:0;fill:#e57b7b;fill-opacity:1"
       id="rect4221"
       width="335.32767"
       height="227.56053"
       x="330.48486"
       y="346.6478" />
    <path
       style="fill:none;fill-rule:evenodd;stroke:#000000;stroke-width:1px;stroke-linecap:butt;stroke-linejoin:miter;stroke-opacity:1"
       d="m -871.42857,120.93352 c -5.71429,51.42857 48.57143,85.71428 48.57143,85.71428 z"
       id="path4603"
       inkscape:connector-curvature="0" />
    <rect
       style="opacity:0;fill:#644e1d;fill-opacity:1"
       id="rect4606"
       width="1102.8572"
       height="1051.4286"
       x="5.7142859"
       y="-4.7807808" />
    <rect
       style="opacity:0;fill:#644e1d;fill-opacity:1"
       id="rect4608"
       width="1114.2858"
       height="1054.2858"
       x="0"
       y="-10.495067" />
    <rect
       style="opacity:0;fill:#a48540;fill-opacity:1"
       id="rect4610"
       width="1105.7142"
       height="1065.7142"
       x="8.5714283"
       y="-4.7807808" />
    <rect
       style="opacity:0;fill:#e57b7b;fill-opacity:1"
       id="rect4612"
       width="228.57143"
       height="511.42856"
       x="491.42856"
       y="252.36208" />
    <rect
       style="opacity:0;fill:#e57b7b;fill-opacity:1"
       id="rect4616"
       width="360"
       height="308.57144"
       x="37.142857"
       y="86.647789" />
    <rect
       style="opacity:0;fill:#e57b7b;fill-opacity:1"
       id="rect4628"
       width="660"
       height="157.14285"
       x="288.57144"
       y="449.50494" />
    <rect
       style="opacity:1;fill:#b77be5;fill-opacity:1"
       id="rect4661"
       width="985.71429"
       height="728.57141"
       x="-5.7142859"
       y="343.79077" />
    <text
       xml:space="preserve"
       style="font-style:normal;font-variant:normal;font-weight:normal;font-stretch:normal;font-size:284.16912842px;line-height:125%;font-family:'Bitstream Charter';-inkscape-font-specification:'Bitstream Charter, Normal';text-align:start;letter-spacing:0px;word-spacing:0px;writing-mode:lr-tb;text-anchor:start;fill:#000000;fill-opacity:1;stroke:none;stroke-width:1px;stroke-linecap:butt;stroke-linejoin:miter;stroke-opacity:1"
       x="146.12183"
       y="383.75552"
       id="text4663"
       sodipodi:linespacing="125%"
       transform="scale(0.38825506,2.5756264)"><tspan
         sodipodi:role="line"
         id="tspan4665"
         x="146.12183"
         y="383.75552">AISHUZZZZZ</tspan></text>
    <path
       style="opacity:1;fill:#aa0000;fill-opacity:1"
       d="m -9.2857164,1424.9338 0,-362.8572 491.4285664,0 491.42857,0 0,362.8572 0,362.8571 -491.42857,0 -491.4285664,0 0,-362.8571 z M 245.80222,1651.4229 c 17.71831,-30.4535 21.62817,-189.3546 6.16208,-250.4344 -2.43484,-9.6158 -8.77581,-23.9119 -14.09106,-31.769 -5.31524,-7.8572 -11.10691,-18.1101 -12.87037,-22.7843 -8.10951,-21.4949 -5.83416,-113.8384 3.22193,-130.7598 4.74912,-8.8739 12.03689,-4.5146 20.25492,12.1155 l 7.76544,15.7143 0.0917,-34.3368 c 0.0858,-32.1259 -0.37484,-35.0233 -7.15416,-44.9999 -9.89837,-14.5668 -19.24158,-14.5489 -26.63565,0.051 -10.398,20.5313 -13.26345,49.1649 -13.2239,132.1428 0.0428,89.7272 2.03819,102.2047 21.50145,134.4496 15.21763,25.2112 17.87246,41.8107 16.42417,102.6933 -0.90261,37.9432 -2.31542,52.5836 -5.85902,60.7143 -8.02792,18.4198 -17.95605,11.8923 -27.16021,-17.8572 -4.81402,-15.5597 -4.87159,-15.6159 -5.85404,-5.7143 -0.54572,5.5 -0.56417,22.9564 -0.041,38.792 0.85622,25.9171 1.75134,29.9999 8.9645,40.889 10.00018,15.0964 20.13009,15.4852 28.50321,1.0939 z m 146.9008,-3.632 c 12.17438,-24.9468 13.19583,-44.1909 14.36918,-270.7143 l 1.11362,-215 -5.87862,0 c -5.87166,0 -5.87872,0.218 -5.95235,183.5715 -0.0854,212.5383 -2.97145,259.2857 -16.00794,259.2857 -14.58363,0 -18.10726,-52.7994 -18.16169,-272.1429 -0.0419,-168.7954 -0.1066,-170.7143 -5.75665,-170.7143 -5.65752,0 -5.714,1.895 -5.6848,190.7143 0.0294,189.9203 1.93731,241.74 10.22923,277.822 7.97725,34.7128 19.99714,41.2201 31.73002,17.178 z m -274.3861,-54.2857 c 1.82431,-32.2143 3.43145,-60.1786 3.57143,-62.1429 0.16968,-2.3812 5.35729,-3.5714 15.56593,-3.5714 l 15.31144,0 1.86567,37.8572 c 3.96809,80.518 4.86501,87.8571 10.73713,87.8571 7.27909,0 7.46017,6.0613 -7.51138,-251.4286 C 150.78571,1280.4579 145,1176.7047 145,1171.5141 c 0,-8.0791 -0.99536,-9.4375 -6.91545,-9.4375 -6.39703,0 -7.04276,1.3387 -8.61376,17.8572 -1.48697,15.6348 -27.33783,460.3748 -27.33068,470.1987 0.002,2.275 2.55214,3.4081 6.43131,2.8571 6.3018,-0.895 6.49399,-2.0681 9.7455,-59.4844 z m 75.2545,-185.7143 0,-245.7143 -7.14285,0 -7.14286,0 0,245.7143 0,245.7143 7.14286,0 7.14285,0 0,-245.7143 z m 94.28572,128.5714 0,-117.1428 17.14286,0 17.14285,0 0,117.1428 c 0,115.2381 0.0929,117.1429 5.71429,117.1429 5.67,0 5.71428,-1.9048 5.71428,-245.7143 0,-243.8095 -0.0443,-245.7143 -5.71428,-245.7143 -5.60543,0 -5.71429,1.9048 -5.71429,100 l 0,100 -17.14285,0 -17.14286,0 0,-100 0,-100 -7.14286,0 -7.14286,0 0,243.8095 c 0,134.0953 0.85715,244.6667 1.90478,245.7143 1.0476,1.0477 4.26188,1.9048 7.14285,1.9048 4.99417,0 5.23809,-5.4545 5.23809,-117.1429 z m 194.28571,88.5715 0,-28.5715 -24.28571,0 c -13.35714,0 -24.28572,-0.4488 -24.28572,-0.9975 0,-0.5486 10.28572,-84.8768 22.85715,-187.3959 15.17231,-123.7292 22.85714,-196.3997 22.85714,-216.1454 l 0,-29.7469 -30,0 -30,0 0,28.5715 0,28.5714 23.0322,0 23.03223,0 -1.69652,12.1428 c -14.18837,101.5539 -44.36791,368.3518 -44.36791,392.2279 l 0,29.915 31.42857,0 31.42857,0 0,-28.5714 z m 68.57143,0 0,-28.5715 -24.21428,0 -24.21429,0 1.43437,-7.8571 c 5.70832,-31.2689 46.9942,-386.1978 46.9942,-404.0025 l 0,-22.4261 -31.42857,0 -31.42857,0 0,28.5715 0,28.5714 22.85714,0 c 19.86786,0 22.8558,0.6539 22.84686,5 -0.006,2.75 -10.29137,88.9696 -22.85714,191.5991 -12.9396,105.6827 -22.84686,197.6759 -22.84686,212.1429 l 0,25.5437 31.42857,0 31.42857,0 0,-28.5714 z m 68.57143,0 0,-28.5715 -22.85714,0 c -17.89195,0 -22.85715,-0.8855 -22.85715,-4.0767 0,-2.2422 10.28492,-88.0636 22.85538,-190.7143 13.46102,-109.923 22.85608,-197.5006 22.85714,-213.0661 l 0.002,-26.4286 -30,0 -30,0 0,28.5715 0,28.5714 22.78571,0 22.78572,0 -1.40086,7.8571 c -5.63337,31.5963 -47.02771,388.1393 -47.02771,405.065 l 0,21.3636 31.42857,0 31.42857,0 0,-28.5714 z m 71.42857,0 0,-28.5715 -24.53686,0 -24.53685,0 1.70114,-10.7142 c 0.9356,-5.8929 11.33283,-89.7858 23.10491,-186.4286 14.39638,-118.1869 21.40492,-185.7699 21.40718,-206.4286 l 0.003,-30.7143 -30,0 -30,0 0,28.5715 0,28.5714 22.85714,0 c 12.57143,0 22.85714,0.6462 22.85714,1.4361 0,0.7899 -10.28571,85.5639 -22.85714,188.3867 -14.67411,120.0208 -22.85714,197.2455 -22.85714,215.7067 l 0,28.7562 31.42857,0 31.42857,0 0,-28.5714 z m 68.57143,0.1111 0,-28.4602 -23.62334,-0.8255 -23.62335,-0.8255 23.49655,-191.4286 c 12.92308,-105.2857 23.5536,-202.6786 23.62334,-216.4285 l 0.1268,-25 -30,0 -30,0 0,28.5715 0,28.5714 21.42857,0 c 19.44166,0 21.42857,0.5238 21.42857,5.6493 0,3.1071 -10.28571,89.7626 -22.85714,192.5678 -12.57143,102.8051 -22.85714,197.9772 -22.85714,211.4935 l 0,24.5751 31.42857,0 31.42857,0 0,-28.4602 0,-10e-5 z"
       id="path4667"
       inkscape:connector-curvature="0" />
    <path
       inkscape:connector-curvature="0"
       id="path4669"
       d="m -6.4285688,-15.06652 0,-362.85715 491.4285588,0 491.42853,0 0,362.85715 0,362.85709 -491.42853,0 -491.4285588,0 0,-362.85709 z M 248.65936,211.42259 c 17.71831,-30.45346 21.62817,-189.35463 6.16208,-250.43437 -2.43484,-9.615831 -8.77581,-23.911891 -14.09106,-31.769031 -5.31524,-7.85714 -11.10691,-18.11006 -12.87037,-22.78426 -8.10951,-21.494879 -5.83416,-113.838399 3.22193,-130.759869 4.74912,-8.87381 12.03689,-4.5146 20.25492,12.11556 l 7.76544,15.71428 0.0917,-34.33675 c 0.0858,-32.12595 -0.37484,-35.02333 -7.15416,-45 -9.89837,-14.56677 -19.24158,-14.54886 -26.63565,0.0511 -10.398,20.5313 -13.26345,49.16496 -13.2239,132.14286 0.0428,89.727219 2.03819,102.2047 21.50145,134.4496395 C 248.89937,16.02293 251.5542,32.62244 250.10591,93.50498 c -0.90261,37.94323 -2.31542,52.5836 -5.85902,60.71429 -8.02792,18.41983 -17.95605,11.89234 -27.16021,-17.85714 -4.81402,-15.55975 -4.87159,-15.61595 -5.85404,-5.71429 -0.54572,5.5 -0.56417,22.9564 -0.041,38.79197 0.85622,25.91709 1.75134,29.99989 8.9645,40.889 10.00018,15.09643 20.13009,15.4852 28.50321,1.09386 z m 146.9008,-3.63197 c 12.17438,-24.9468 13.19583,-44.19089 14.36918,-270.714291 l 1.11362,-214.999999 -5.87862,0 c -5.87166,0 -5.87872,0.21797 -5.95235,183.571429 -0.0854,212.538321 -2.97145,259.285721 -16.00794,259.285721 -14.58363,0 -18.10726,-52.79938 -18.16169,-272.14286 -0.0419,-168.7954 -0.1066,-170.71429 -5.75665,-170.71429 -5.65752,0 -5.714,1.89494 -5.6848,190.714289 0.0294,189.920261 1.93731,241.740001 10.22923,277.822001 7.97725,34.71277 19.99714,41.22011 31.73002,17.178 z M 121.17406,153.5049 c 1.82431,-32.21428 3.43145,-60.17857 3.57143,-62.14285 0.16968,-2.3812 5.35729,-3.57143 15.56593,-3.57143 l 15.31144,0 1.86567,37.85714 c 3.96809,80.51803 4.86501,87.85714 10.73713,87.85714 7.27909,0 7.46017,6.06132 -7.51138,-251.42857 -7.07143,-121.61877 -12.85714,-225.3719 -12.85714,-230.56251 0,-8.07913 -0.99536,-9.43749 -6.91545,-9.43749 -6.39703,0 -7.04276,1.33866 -8.61376,17.85715 -1.48697,15.63484 -27.33783,460.3748 -27.33068,470.19871 0.002,2.275 2.55214,3.40809 6.43131,2.85714 6.3018,-0.895 6.49399,-2.06808 9.7455,-59.48443 z m 75.2545,-185.71428 0,-245.71429 -7.14285,0 -7.14286,0 0,245.71429 0,245.71428 7.14286,0 7.14285,0 0,-245.71428 z m 94.28572,128.57143 0,-117.14286 17.14286,0 17.14285,0 0,117.14286 c 0,115.23808 0.0929,117.14285 5.71429,117.14285 5.67,0 5.71428,-1.90477 5.71428,-245.71428 0,-243.80952 -0.0443,-245.71429 -5.71428,-245.71429 -5.60543,0 -5.71429,1.90477 -5.71429,100 l 0,99.999999 -17.14285,0 -17.14286,0 0,-99.999999 0,-100 -7.14286,0 -7.14286,0 0,243.80952 c 0,134.09525 0.85715,244.66668 1.90478,245.71428 1.0476,1.04763 4.26188,1.90477 7.14285,1.90477 4.99417,0 5.23809,-5.45454 5.23809,-117.14285 z m 194.28571,88.57143 0,-28.57143 -24.28571,0 c -13.35714,0 -24.28572,-0.44889 -24.28572,-0.99755 0,-0.54862 10.28572,-84.8768 22.85715,-187.39594 15.17231,-123.7292 22.85714,-196.39967 22.85714,-216.14533 l 0,-29.7469 -30,0 -30,0 0,28.57143 0,28.57143 23.0322,0 23.03223,0 -1.69652,12.14286 c -14.18837,101.55389 -44.36791,368.35171 -44.36791,392.22788 l 0,29.91497 31.42857,0 31.42857,0 0,-28.57142 z m 68.57143,0 0,-28.57143 -24.21428,0 -24.21429,0 1.43437,-7.85715 c 5.70832,-31.26894 46.9942,-386.19783 46.9942,-404.00246 l 0,-22.42611 -31.42857,0 -31.42857,0 0,28.57143 0,28.57143 22.85714,0 c 19.86786,0 22.8558,0.65391 22.84686,5 -0.006,2.75 -10.29137,88.96961 -22.85714,191.59914 -12.9396,105.68272 -22.84686,197.67586 -22.84686,212.14286 l 0,25.54371 31.42857,0 31.42857,0 0,-28.57142 z m 68.57143,0 0,-28.57143 -22.85714,0 c -17.89195,0 -22.85715,-0.88557 -22.85715,-4.07675 0,-2.2422 10.28492,-88.06362 22.85538,-190.71428 13.46102,-109.92304 22.85608,-197.5006 22.85714,-213.06612 l 0.002,-26.42857 -30,0 -30,0 0,28.57143 0,28.57143 22.78571,0 22.78572,0 -1.40086,7.85714 c -5.63337,31.59624 -47.02771,388.13926 -47.02771,405.06497 l 0,21.3636 31.42857,0 31.42857,0 0,-28.57142 z m 71.42857,0 0,-28.57143 -24.53686,0 -24.53685,0 1.70114,-10.71429 c 0.9356,-5.89286 11.33283,-89.78571 23.10491,-186.42857 14.39638,-118.18689 21.40492,-185.76989 21.40718,-206.42857 l 0.003,-30.71429 -30,0 -30,0 0,28.57143 0,28.57143 22.85714,0 c 12.57143,0 22.85714,0.64625 22.85714,1.43612 0,0.78987 -10.28571,85.56387 -22.85714,188.38668 -14.67411,120.02086 -22.85714,197.24549 -22.85714,215.70674 l 0,28.75617 31.42857,0 31.42857,0 0,-28.57142 z m 68.57143,0.11114 0,-28.46017 -23.62334,-0.82555 -23.62335,-0.82551 23.49655,-191.42857 c 12.92308,-105.28572 23.5536,-202.67857 23.62334,-216.42857 l 0.1268,-24.99992 -30,0 -30,0 0,28.57143 0,28.57143 21.42857,0 c 19.44166,0 21.42857,0.52382 21.42857,5.64931 0,3.10711 -10.28571,89.76261 -22.85714,192.56778 -12.57143,102.80514 -22.85714,197.97725 -22.85714,211.49354 l 0,24.57508 31.42857,0 31.42857,0 0,-28.4602 0,-8e-5 z"
       style="opacity:1;fill:#aa0000;fill-opacity:1" />
    <path
       style="opacity:1;fill:#aa0000;fill-opacity:1"
       d="m -992.14314,704.93365 0,-362.85715 491.42856,0 491.4285666,0 0,362.85715 0,362.85715 -491.4285666,0 -491.42856,0 0,-362.85715 z m 255.08793,226.48911 c 17.71831,-30.45346 21.62817,-189.35463 6.16208,-250.43437 -2.43484,-9.61583 -8.77581,-23.91189 -14.09106,-31.76903 -5.31524,-7.85714 -11.10691,-18.11006 -12.87037,-22.78426 -8.10951,-21.49488 -5.83416,-113.8384 3.22193,-130.75987 4.74912,-8.87381 12.03689,-4.5146 20.25492,12.11556 l 7.76544,15.71428 0.0917,-34.33675 c 0.0858,-32.12595 -0.37484,-35.02333 -7.15416,-45 -9.89837,-14.56677 -19.24158,-14.54886 -26.63565,0.0511 -10.398,20.5313 -13.26345,49.16496 -13.2239,132.14286 0.0428,89.72722 2.03819,102.2047 21.50145,134.44964 15.21763,25.21118 17.87246,41.81069 16.42417,102.69323 -0.90261,37.94323 -2.31542,52.5836 -5.85902,60.71429 -8.02792,18.41983 -17.95605,11.89234 -27.16021,-17.85714 -4.81402,-15.55975 -4.87159,-15.61595 -5.85404,-5.71429 -0.54572,5.5 -0.56417,22.9564 -0.041,38.79197 0.85622,25.91709 1.75134,29.99989 8.9645,40.889 10.00018,15.09643 20.13009,15.4852 28.50321,1.09386 z m 146.9008,-3.63197 c 12.17438,-24.9468 13.19583,-44.19089 14.36918,-270.71429 l 1.11362,-215 -5.87862,0 c -5.87166,0 -5.87872,0.21797 -5.95235,183.57143 -0.0854,212.53832 -2.97145,259.28572 -16.00794,259.28572 -14.58363,0 -18.10726,-52.79938 -18.16169,-272.14286 -0.0419,-168.7954 -0.1066,-170.71429 -5.75665,-170.71429 -5.65752,0 -5.714,1.89494 -5.6848,190.71429 0.0294,189.92026 1.93731,241.74 10.22923,277.822 7.97725,34.71277 19.99714,41.22011 31.73002,17.178 z m -274.3861,-54.28572 c 1.82431,-32.21428 3.43145,-60.17857 3.57143,-62.14285 0.16968,-2.3812 5.35729,-3.57143 15.56593,-3.57143 l 15.31144,0 1.86567,37.85714 c 3.96809,80.51803 4.86501,87.85714 10.73713,87.85714 7.27909,0 7.46017,6.06132 -7.51138,-251.42857 -7.07143,-121.61877 -12.85714,-225.3719 -12.85714,-230.56251 0,-8.07913 -0.99536,-9.43749 -6.91545,-9.43749 -6.39703,0 -7.04276,1.33866 -8.61376,17.85715 -1.48697,15.63484 -27.33783,460.3748 -27.33068,470.19871 0.002,2.275 2.55214,3.40809 6.43131,2.85714 6.3018,-0.895 6.49399,-2.06808 9.7455,-59.48443 z m 75.2545,-185.71428 0,-245.71429 -7.14285,0 -7.14286,0 0,245.71429 0,245.71428 7.14286,0 7.14285,0 0,-245.71428 z m 94.28572,128.57143 0,-117.14286 17.14286,0 17.14285,0 0,117.14286 c 0,115.23808 0.0929,117.14285 5.71429,117.14285 5.67,0 5.71428,-1.90477 5.71428,-245.71428 0,-243.80952 -0.0443,-245.71429 -5.71428,-245.71429 -5.60543,0 -5.71429,1.90477 -5.71429,100 l 0,100 -17.14285,0 -17.14286,0 0,-100 0,-100 -7.14286,0 -7.14286,0 0,243.80952 c 0,134.09525 0.85715,244.66668 1.90478,245.71428 1.0476,1.04763 4.26188,1.90477 7.14285,1.90477 4.99417,0 5.23809,-5.45454 5.23809,-117.14285 z m 194.28571,88.57143 0,-28.57143 -24.28571,0 c -13.35714,0 -24.28572,-0.44889 -24.28572,-0.99755 0,-0.54862 10.28572,-84.8768 22.85715,-187.39594 15.17231,-123.7292 22.85714,-196.39967 22.85714,-216.14533 l 0,-29.7469 -30,0 -30,0 0,28.57143 0,28.57143 23.0322,0 23.03223,0 -1.69652,12.14286 c -14.18837,101.55389 -44.36791,368.35171 -44.36791,392.22788 l 0,29.91497 31.42857,0 31.42857,0 0,-28.57142 z m 68.57143,0 0,-28.57143 -24.21428,0 -24.21429,0 1.43437,-7.85715 c 5.70832,-31.26894 46.9942,-386.19783 46.9942,-404.00246 l 0,-22.42611 -31.42857,0 -31.42857,0 0,28.57143 0,28.57143 22.85714,0 c 19.86786,0 22.8558,0.65391 22.84686,5 -0.006,2.75 -10.29137,88.96961 -22.85714,191.59914 -12.9396,105.68272 -22.84686,197.67586 -22.84686,212.14286 l 0,25.54371 31.42857,0 31.42857,0 0,-28.57142 z m 68.57143,0 0,-28.57143 -22.85714,0 c -17.89195,0 -22.85715,-0.88557 -22.85715,-4.07675 0,-2.2422 10.28492,-88.06362 22.85538,-190.71428 13.46102,-109.92304 22.85608,-197.5006 22.85714,-213.06612 l 0.002,-26.42857 -30,0 -30,0 0,28.57143 0,28.57143 22.78571,0 22.78572,0 -1.40086,7.85714 c -5.63337,31.59624 -47.02771,388.13926 -47.02771,405.06497 l 0,21.3636 31.42857,0 31.42857,0 0,-28.57142 z m 71.42857,0 0,-28.57143 -24.53686,0 -24.53685,0 1.70114,-10.71429 c 0.9356,-5.89286 11.33283,-89.78571 23.10491,-186.42857 14.39638,-118.18689 21.40492,-185.76989 21.40718,-206.42857 l 0.003,-30.71429 -30,0 -30,0 0,28.57143 0,28.57143 22.85714,0 c 12.57143,0 22.85714,0.64625 22.85714,1.43612 0,0.78987 -10.28571,85.56387 -22.85714,188.38668 -14.67411,120.02086 -22.85714,197.24549 -22.85714,215.70674 l 0,28.75617 31.42857,0 31.42857,0 0,-28.57142 z m 68.57143,0.11114 0,-28.46017 -23.62334,-0.82555 -23.62335,-0.82551 23.49655,-191.42857 c 12.92308,-105.28572 23.5536,-202.67857 23.62334,-216.42857 l 0.1268,-24.99992 -30,0 -30,0 0,28.57143 0,28.57143 21.42857,0 c 19.44166,0 21.42857,0.52382 21.42857,5.64931 0,3.10711 -10.28571,89.76261 -22.85714,192.56778 -12.57143,102.80514 -22.85714,197.97725 -22.85714,211.49354 l 0,24.57508 31.42857,0 31.42857,0 0,-28.4602 0,-8e-5 z"
       id="path4671"
       inkscape:connector-curvature="0" />
    <path
       style="opacity:1;fill:#aa0000;fill-opacity:1"
       d="m 973.57171,724.93366 0,-362.85715 491.42859,0 491.4285,0 0,362.85715 0,362.85704 -491.4285,0 -491.42859,0 0,-362.85704 z m 255.08789,226.48911 c 17.7184,-30.45346 21.6282,-189.35463 6.1621,-250.43437 -2.4348,-9.61583 -8.7758,-23.91189 -14.091,-31.76903 -5.3153,-7.85714 -11.1069,-18.11006 -12.8704,-22.78426 -8.1095,-21.49488 -5.8342,-113.8384 3.2219,-130.75987 4.7491,-8.87381 12.0369,-4.5146 20.2549,12.11556 l 7.7655,15.71428 0.092,-34.33675 c 0.086,-32.12595 -0.3749,-35.02333 -7.1542,-45 -9.8983,-14.56677 -19.2416,-14.54886 -26.6356,0.0511 -10.398,20.5313 -13.2635,49.16496 -13.2239,132.14286 0.043,89.72722 2.0382,102.2047 21.5014,134.44964 15.2177,25.21118 17.8725,41.81069 16.4242,102.69323 -0.9026,37.94323 -2.3154,52.5836 -5.859,60.71429 -8.0279,18.41983 -17.9561,11.89234 -27.1602,-17.85714 -4.8141,-15.55975 -4.8716,-15.61595 -5.8541,-5.71429 -0.5457,5.5 -0.5641,22.9564 -0.041,38.79197 0.8562,25.91709 1.7514,29.99989 8.9645,40.889 10.0002,15.09643 20.1301,15.4852 28.5032,1.09386 z m 146.9008,-3.63197 c 12.1744,-24.9468 13.1959,-44.19089 14.3692,-270.71429 l 1.1136,-215 -5.8786,0 c -5.8716,0 -5.8787,0.21797 -5.9523,183.57143 -0.085,212.53832 -2.9715,259.28572 -16.008,259.28572 -14.5836,0 -18.1072,-52.79938 -18.1617,-272.14286 -0.042,-168.7954 -0.1066,-170.71429 -5.7566,-170.71429 -5.6575,0 -5.714,1.89494 -5.6848,190.71429 0.029,189.92026 1.9373,241.74 10.2292,277.822 7.9773,34.71277 19.9972,41.22011 31.73,17.178 z m -274.3861,-54.28572 c 1.8244,-32.21428 3.4315,-60.17857 3.5715,-62.14285 0.1697,-2.3812 5.3573,-3.57143 15.5659,-3.57143 l 15.3114,0 1.8657,37.85714 c 3.9681,80.51803 4.865,87.85714 10.7371,87.85714 7.2791,0 7.4602,6.06132 -7.5113,-251.42857 -7.0715,-121.61877 -12.8572,-225.3719 -12.8572,-230.56251 0,-8.07913 -0.9953,-9.43749 -6.9154,-9.43749 -6.3971,0 -7.0428,1.33866 -8.6138,17.85715 -1.487,15.63484 -27.3378,460.3748 -27.3307,470.19871 0,2.275 2.5522,3.40809 6.4313,2.85714 6.3018,-0.895 6.494,-2.06808 9.7455,-59.48443 z m 75.2545,-185.71428 0,-245.71429 -7.1428,0 -7.1429,0 0,245.71429 0,245.71428 7.1429,0 7.1428,0 0,-245.71428 z m 94.2858,128.57143 0,-117.14286 17.1428,0 17.1429,0 0,117.14286 c 0,115.23808 0.093,117.14285 5.7143,117.14285 5.67,0 5.7142,-1.90477 5.7142,-245.71428 0,-243.80952 -0.044,-245.71429 -5.7142,-245.71429 -5.6055,0 -5.7143,1.90477 -5.7143,100 l 0,100 -17.1429,0 -17.1428,0 0,-100 0,-100 -7.1429,0 -7.1429,0 0,243.80952 c 0,134.09525 0.8572,244.66668 1.9048,245.71428 1.0476,1.04763 4.2619,1.90477 7.1429,1.90477 4.9941,0 5.2381,-5.45454 5.2381,-117.14285 z m 194.2857,88.57143 0,-28.57143 -24.2857,0 c -13.3572,0 -24.2858,-0.44889 -24.2858,-0.99755 0,-0.54862 10.2858,-84.8768 22.8572,-187.39594 15.1723,-123.7292 22.8571,-196.39967 22.8571,-216.14533 l 0,-29.7469 -30,0 -30,0 0,28.57143 0,28.57143 23.0322,0 23.0323,0 -1.6966,12.14286 c -14.1883,101.55389 -44.3679,368.35171 -44.3679,392.22788 l 0,29.91497 31.4286,0 31.4286,0 0,-28.57142 z m 68.5714,0 0,-28.57143 -24.2143,0 -24.2143,0 1.4344,-7.85715 c 5.7083,-31.26894 46.9942,-386.19783 46.9942,-404.00246 l 0,-22.42611 -31.4286,0 -31.4285,0 0,28.57143 0,28.57143 22.8571,0 c 19.8679,0 22.8558,0.65391 22.8469,5 -0.01,2.75 -10.2914,88.96961 -22.8572,191.59914 -12.9396,105.68272 -22.8468,197.67586 -22.8468,212.14286 l 0,25.54371 31.4285,0 31.4286,0 0,-28.57142 z m 68.5714,0 0,-28.57143 -22.8571,0 c -17.892,0 -22.8572,-0.88557 -22.8572,-4.07675 0,-2.2422 10.285,-88.06362 22.8554,-190.71428 13.461,-109.92304 22.8561,-197.5006 22.8572,-213.06612 l 0,-26.42857 -30,0 -30,0 0,28.57143 0,28.57143 22.7857,0 22.7857,0 -1.4009,7.85714 c -5.6333,31.59624 -47.0277,388.13926 -47.0277,405.06497 l 0,21.3636 31.4286,0 31.4286,0 0,-28.57142 z m 71.4286,0 0,-28.57143 -24.5369,0 -24.5368,0 1.7011,-10.71429 c 0.9356,-5.89286 11.3329,-89.78571 23.1049,-186.42857 14.3964,-118.18689 21.405,-185.76989 21.4072,-206.42857 l 0,-30.71429 -30,0 -30,0 0,28.57143 0,28.57143 22.8572,0 c 12.5714,0 22.8571,0.64625 22.8571,1.43612 0,0.78987 -10.2857,85.56387 -22.8571,188.38668 -14.6741,120.02086 -22.8572,197.24549 -22.8572,215.70674 l 0,28.75617 31.4286,0 31.4286,0 0,-28.57142 z m 68.5714,0.11114 0,-28.46017 -23.6233,-0.82555 -23.6234,-0.82551 23.4966,-191.42857 c 12.9231,-105.28572 23.5536,-202.67857 23.6233,-216.42857 l 0.1268,-24.99992 -30,0 -30,0 0,28.57143 0,28.57143 21.4286,0 c 19.4417,0 21.4286,0.52382 21.4286,5.64931 0,3.10711 -10.2857,89.76261 -22.8572,192.56778 C 1689.5717,820.2416 1679.286,915.41371 1679.286,928.93 l 0,24.57508 31.4286,0 31.4285,0 0,-28.4602 0,-8e-5 z"
       id="path4677"
       inkscape:connector-curvature="0" />
  </g>
</svg>
